mem3_reg_test.vcd
$date
	Mon May 23 07:23:50 2022
$end
$version
	Icarus Verilog
$end
$timescale
	1ns
$end
$scope module mem3_reg_test $end
$var wire 9 ! out [8:0] $end
$var reg 3 " clk [2:0] $end
$var reg 3 # control [2:0] $end
$scope module dd0 $end
$var wire 3 $ clk [2:0] $end
$var wire 3 % control [2:0] $end
$var wire 9 & out [8:0] $end
$scope module dd0 $end
$var wire 1 ' clk $end
$var wire 3 ( control [2:0] $end
$var wire 3 ) out [2:0] $end
$scope module dd0 $end
$var wire 1 ' clk $end
$var wire 1 * d $end
$var wire 1 + qbar $end
$var reg 1 , q $end
$upscope $end
$scope module dd1 $end
$var wire 1 ' clk $end
$var wire 1 - d $end
$var wire 1 . qbar $end
$var reg 1 / q $end
$upscope $end
$scope module dd2 $end
$var wire 1 ' clk $end
$var wire 1 0 d $end
$var wire 1 1 qbar $end
$var reg 1 2 q $end
$upscope $end
$upscope $end
$scope module dd1 $end
$var wire 1 3 clk $end
$var wire 3 4 control [2:0] $end
$var wire 3 5 out [2:0] $end
$scope module dd0 $end
$var wire 1 3 clk $end
$var wire 1 6 d $end
$var wire 1 7 qbar $end
$var reg 1 8 q $end
$upscope $end
$scope module dd1 $end
$var wire 1 3 clk $end
$var wire 1 9 d $end
$var wire 1 : qbar $end
$var reg 1 ; q $end
$upscope $end
$scope module dd2 $end
$var wire 1 3 clk $end
$var wire 1 < d $end
$var wire 1 = qbar $end
$var reg 1 > q $end
$upscope $end
$upscope $end
$scope module dd2 $end
$var wire 1 ? clk $end
$var wire 3 @ control [2:0] $end
$var wire 3 A out [2:0] $end
$scope module dd0 $end
$var wire 1 ? clk $end
$var wire 1 B d $end
$var wire 1 C qbar $end
$var reg 1 D q $end
$upscope $end
$scope module dd1 $end
$var wire 1 ? clk $end
$var wire 1 E d $end
$var wire 1 F qbar $end
$var reg 1 G q $end
$upscope $end
$scope module dd2 $end
$var wire 1 ? clk $end
$var wire 1 H d $end
$var wire 1 I qbar $end
$var reg 1 J q $end
$upscope $end
$upscope $end
$upscope $end
$upscope $end
$enddefinitions $end
#0
$dumpvars
xJ
xI
0H
xG
xF
0E
xD
xC
0B
bx A
b0 @
0?
x>
x=
0<
x;
x:
09
x8
x7
06
bx 5
b0 4
03
x2
x1
00
x/
x.
0-
x,
x+
0*
bx )
b0 (
0'
bx &
b0 %
b0 $
b0 #
b0 "
bx !
$end
#25
10
1<
1H
b100 #
b100 %
b100 (
b100 4
b100 @
#27
1-
19
1E
b110 #
b110 %
b110 (
b110 4
b110 @
#30
1*
16
1B
b111 #
b111 %
b111 (
b111 4
b111 @
#35
13
b10 "
b10 $
#36
07
0:
0=
18
1;
bx111xxx !
bx111xxx &
b111 5
1>
#43
1?
b110 "
b110 $
#44
0C
0F
0I
1D
1G
b111111xxx !
b111111xxx &
b111 A
1J
#50
00
0<
0H
1'
b11 #
b11 %
b11 (
b11 4
b11 @
b111 "
b111 $
#51
1=
1I
0+
0.
11
b11 5
0>
b11 A
0J
1,
1/
b11011011 !
b11011011 &
b11 )
02
#54
0-
09
0E
b1 #
b1 %
b1 (
b1 4
b1 @
#55
1.
1:
1F
b1 )
0/
b1 5
0;
b1001001 !
b1001001 &
b1 A
0G
#60
0*
06
0B
b0 #
b0 %
b0 (
b0 4
b0 @
#61
1+
17
1C
b0 )
0,
b0 5
08
b0 !
b0 &
b0 A
0D
#70
03
b101 "
b101 $
#75
10
1<
1H
b100 #
b100 %
b100 (
b100 4
b100 @
#76
01
0I
b100 )
12
b100000100 !
b100000100 &
b100 A
1J
#81
1-
19
1E
b110 #
b110 %
b110 (
b110 4
b110 @
#82
0.
0F
b110 )
1/
b110000110 !
b110000110 &
b110 A
1G
#86
0?
b1 "
b1 $
#90
1*
16
1B
b111 #
b111 %
b111 (
b111 4
b111 @
#91
0+
b110000111 !
b110000111 &
b111 )
1,
#100
00
0<
0H
0'
b11 #
b11 %
b11 (
b11 4
b11 @
b0 "
b0 $
#105
13
b10 "
b10 $
#106
07
0:
18
b110011111 !
b110011111 &
b11 5
1;
#108
0-
09
0E
b1 #
b1 %
b1 (
b1 4
b1 @
#109
1:
b110001111 !
b110001111 &
b1 5
0;
#120
0*
06
0B
b0 #
b0 %
b0 (
b0 4
b0 @
#121
17
b110000111 !
b110000111 &
b0 5
08
#125
10
1<
1H
b100 #
b100 %
b100 (
b100 4
b100 @
#126
0=
b110100111 !
b110100111 &
b100 5
1>
#129
1?
b110 "
b110 $
#130
1F
b100100111 !
b100100111 &
b100 A
0G
#135
1-
19
1E
b110 #
b110 %
b110 (
b110 4
b110 @
#136
0:
0F
b110 5
1;
b110110111 !
b110110111 &
b110 A
1G
#140
03
b100 "
b100 $
#150
00
0<
0H
1*
16
1B
1'
b11 #
b11 %
b11 (
b11 4
b11 @
b101 "
b101 $
#151
1I
0C
11
0J
b11 A
1D
b11110011 !
b11110011 &
b11 )
02
#162
0-
09
0E
b1 #
b1 %
b1 (
b1 4
b1 @
#163
1.
1F
b1 )
0/
b1110001 !
b1110001 &
b1 A
0G
#172
0?
b1 "
b1 $
#175
10
1<
1H
13
b101 #
b101 %
b101 (
b101 4
b101 @
b11 "
b11 $
#176
01
07
1:
b101 )
12
18
b1101101 !
b1101101 &
b101 5
0;
#180
0*
06
0B
b100 #
b100 %
b100 (
b100 4
b100 @
#181
1+
17
b100 )
0,
b1100100 !
b1100100 &
b100 5
08
#189
1-
19
1E
b110 #
b110 %
b110 (
b110 4
b110 @
#190
0.
0:
b110 )
1/
b1110110 !
b1110110 &
b110 5
1;
#200
00
0<
0H
0'
b10 #
b10 %
b10 (
b10 4
b10 @
b10 "
b10 $
#201
1=
b1010110 !
b1010110 &
b10 5
0>
#210
1*
16
1B
03
b11 #
b11 %
b11 (
b11 4
b11 @
b0 "
b0 $
#215
1?
b100 "
b100 $
#216
0F
0-
09
0E
b11010110 !
b11010110 &
b11 A
1G
b1 #
b1 %
b1 (
b1 4
b1 @
#217
1F
b1010110 !
b1010110 &
b1 A
0G
#225
10
1<
1H
b101 #
b101 %
b101 (
b101 4
b101 @
#226
0I
b101010110 !
b101010110 &
b101 A
1J
#240
0*
06
0B
b100 #
b100 %
b100 (
b100 4
b100 @
#241
1C
b100010110 !
b100010110 &
b100 A
0D
#243
1-
19
1E
b110 #
b110 %
b110 (
b110 4
b110 @
#244
0F
b110010110 !
b110010110 &
b110 A
1G
#245
13
b110 "
b110 $
#246
0=
b110110110 !
b110110110 &
b110 5
1>
#250
00
0<
0H
1'
b10 #
b10 %
b10 (
b10 4
b10 @
b111 "
b111 $
#251
1=
1I
11
b10 5
0>
b10 A
0J
b10010010 !
b10010010 &
b10 )
02
#258
0?
b11 "
b11 $
#270
0-
09
0E
1*
16
1B
b1 #
b1 %
b1 (
b1 4
b1 @
#271
1.
1:
0+
07
0/
0;
b1 )
1,
b10001001 !
b10001001 &
b1 5
18
#275
10
1<
1H
b101 #
b101 %
b101 (
b101 4
b101 @
#276
01
0=
b101 )
12
b10101101 !
b10101101 &
b101 5
1>
#280
03
b1 "
b1 $
#297
1-
19
1E
b111 #
b111 %
b111 (
b111 4
b111 @
#298
0.
b10101111 !
b10101111 &
b111 )
1/
#300
00
0<
0H
0*
06
0B
0'
b10 #
b10 %
b10 (
b10 4
b10 @
b0 "
b0 $
#301
1?
b100 "
b100 $
#315
13
b110 "
b110 $
#316
17
0:
1=
08
1;
b10010111 !
b10010111 &
b10 5
0>
#324
0-
09
0E
b0 #
b0 %
b0 (
b0 4
b0 @
#325
1:
1F
10
1<
1H
b0 5
0;
b111 !
b111 &
b0 A
0G
b100 #
b100 %
b100 (
b100 4
b100 @
#326
0=
0I
b100 5
1>
b100100111 !
b100100111 &
b100 A
1J
#330
1*
16
1B
b101 #
b101 %
b101 (
b101 4
b101 @
#331
07
0C
b101 5
18
b101101111 !
b101101111 &
b101 A
1D
#344
0?
b10 "
b10 $
#350
00
0<
0H
03
1'
b1 #
b1 %
b1 (
b1 4
b1 @
b1 "
b1 $
#351
1.
11
1-
19
1E
0/
b101101001 !
b101101001 &
b1 )
02
b11 #
b11 %
b11 (
b11 4
b11 @
#352
0.
b101101011 !
b101101011 &
b11 )
1/
#360
0*
06
0B
b10 #
b10 %
b10 (
b10 4
b10 @
#361
1+
b101101010 !
b101101010 &
b10 )
0,
#375
10
1<
1H
b110 #
b110 %
b110 (
b110 4
b110 @
#376
01
b101101110 !
b101101110 &
b110 )
12
#378
0-
09
0E
b100 #
b100 %
b100 (
b100 4
b100 @
#379
1.
b101101100 !
b101101100 &
b100 )
0/
#385
13
b11 "
b11 $
#386
17
b101100100 !
b101100100 &
b100 5
08
#387
1?
b111 "
b111 $
#388
1C
b100100100 !
b100100100 &
b100 A
0D
#390
1*
16
1B
b101 #
b101 %
b101 (
b101 4
b101 @
#391
0+
07
0C
b101 )
1,
b101 5
18
b101101101 !
b101101101 &
b101 A
1D
#400
00
0<
0H
0'
b1 #
b1 %
b1 (
b1 4
b1 @
b110 "
b110 $
