mx_reg_test.vcd
$date
	Mon May 23 06:10:51 2022
$end
$version
	Icarus Verilog
$end
$timescale
	1ns
$end
$scope module mx_reg_test $end
$var wire 3 ! out [2:0] $end
$var reg 9 " control [8:0] $end
$var reg 8 # d [7:0] $end
$scope module dd0 $end
$var wire 9 $ control [8:0] $end
$var wire 8 % d [7:0] $end
$var wire 3 & out [2:0] $end
$scope module dd0 $end
$var wire 3 ' control [2:0] $end
$var wire 8 ( d [7:0] $end
$var reg 1 ) out $end
$upscope $end
$scope module dd1 $end
$var wire 3 * control [2:0] $end
$var wire 8 + d [7:0] $end
$var reg 1 , out $end
$upscope $end
$scope module dd2 $end
$var wire 3 - control [2:0] $end
$var wire 8 . d [7:0] $end
$var reg 1 / out $end
$upscope $end
$upscope $end
$upscope $end
$enddefinitions $end
#0
$dumpvars
0/
b0 .
b0 -
0,
b0 +
b0 *
0)
b0 (
b0 '
b0 &
b0 %
b0 $
b0 #
b0 "
b0 !
$end
#2
b10000000 #
b10000000 %
b10000000 (
b10000000 +
b10000000 .
#4
b1000000 #
b1000000 %
b1000000 (
b1000000 +
b1000000 .
#6
b11000000 #
b11000000 %
b11000000 (
b11000000 +
b11000000 .
#7
b11100000 #
b11100000 %
b11100000 (
b11100000 +
b11100000 .
#8
b110000 #
b110000 %
b110000 (
b110000 +
b110000 .
#9
b111000 #
b111000 %
b111000 (
b111000 +
b111000 .
#10
b10111100 #
b10111100 %
b10111100 (
b10111100 +
b10111100 .
#11
b10111110 #
b10111110 %
b10111110 (
b10111110 +
b10111110 .
#12
1)
1,
b111 !
b111 &
1/
b1111111 #
b1111111 %
b1111111 (
b1111111 +
b1111111 .
#14
b11011111 #
b11011111 %
b11011111 (
b11011111 +
b11011111 .
#16
b1111 #
b1111 %
b1111 (
b1111 +
b1111 .
#18
b10000111 #
b10000111 %
b10000111 (
b10000111 +
b10000111 .
#20
b1000011 #
b1000011 %
b1000011 (
b1000011 +
b1000011 .
#21
b101 !
b101 &
0,
b10 *
b1100011 #
b1100011 %
b1100011 (
b1100011 +
b1100011 .
b10000 "
b10000 $
#22
b110 *
b11100001 #
b11100001 %
b11100001 (
b11100001 +
b11100001 .
b110000 "
b110000 $
#23
b111 *
b111000 "
b111000 $
#24
b100 !
b100 &
0)
b1 -
b110000 #
b110000 %
b110000 (
b110000 +
b110000 .
b1111000 "
b1111000 $
#25
b100 '
b1111100 "
b1111100 $
#26
1,
b10 !
b10 &
0/
b11 -
b10110000 #
b10110000 %
b10110000 (
b10110000 +
b10110000 .
b11111100 "
b11111100 $
#27
b11 !
b11 &
1)
b110 '
b10111000 #
b10111000 %
b10111000 (
b10111000 +
b10111000 .
b11111110 "
b11111110 $
#28
b1 !
b1 &
0,
b111 -
b1011000 #
b1011000 %
b1011000 (
b1011000 +
b1011000 .
b111111110 "
b111111110 $
#30
1,
b111 !
b111 &
1/
b111 '
b11011100 #
b11011100 %
b11011100 (
b11011100 +
b11011100 .
b111111111 "
b111111111 $
#32
0)
0,
b0 !
b0 &
0/
b1100 #
b1100 %
b1100 (
b1100 +
b1100 .
#33
b1110 #
b1110 %
b1110 (
b1110 +
b1110 .
#34
1)
1,
b111 !
b111 &
1/
b10001110 #
b10001110 %
b10001110 (
b10001110 +
b10001110 .
#35
b10101110 #
b10101110 %
b10101110 (
b10101110 +
b10101110 .
#36
0)
0,
b0 !
b0 &
0/
b1100111 #
b1100111 %
b1100111 (
b1100111 +
b1100111 .
#38
1)
1,
b111 !
b111 &
1/
b11100111 #
b11100111 %
b11100111 (
b11100111 +
b11100111 .
#40
0)
0,
b0 !
b0 &
0/
b110011 #
b110011 %
b110011 (
b110011 +
b110011 .
#42
1)
b101 !
b101 &
1/
b101 *
b10010011 #
b10010011 %
b10010011 (
b10010011 +
b10010011 .
b111101111 "
b111101111 $
#44
0)
1,
b10 !
b10 &
0/
b1 *
b1010001 #
b1010001 %
b1010001 (
b1010001 +
b1010001 .
b111001111 "
b111001111 $
#45
b1011001 #
b1011001 %
b1011001 (
b1011001 +
b1011001 .
#46
1)
b111 !
b111 &
1/
b0 *
b11011001 #
b11011001 %
b11011001 (
b11011001 +
b11011001 .
b111000111 "
b111000111 $
#48
0)
b100 !
b100 &
0,
b110 -
b1000 #
b1000 %
b1000 (
b1000 +
b1000 .
b110000111 "
b110000111 $
#49
b101000 #
b101000 %
b101000 (
b101000 +
b101000 .
#50
b11 '
b10101100 #
b10101100 %
b10101100 (
b10101100 +
b10101100 .
b110000011 "
b110000011 $
#52
1)
b1 !
b1 &
0/
b100 -
b1101100 #
b1101100 %
b1101100 (
b1101100 +
b1101100 .
b100000011 "
b100000011 $
#54
b0 !
b0 &
0)
b1 '
b11100100 #
b11100100 %
b11100100 (
b11100100 +
b11100100 .
b100000001 "
b100000001 $
#55
b100 !
b100 &
1/
b11100110 #
b11100110 %
b11100110 (
b11100110 +
b11100110 .
#56
1)
b1 !
b1 &
0/
b0 -
b10110 #
b10110 %
b10110 (
b10110 +
b10110 .
b1 "
b1 $
#58
b10010110 #
b10010110 %
b10010110 (
b10010110 +
b10010110 .
#60
1,
b111 !
b111 &
1/
b0 '
b1010011 #
b1010011 %
b1010011 (
b1010011 +
b1010011 .
b0 "
b0 $
#62
b11010011 #
b11010011 %
b11010011 (
b11010011 +
b11010011 .
#63
b101 !
b101 &
0,
b10 *
b11111011 #
b11111011 %
b11111011 (
b11111011 +
b11111011 .
b10000 "
b10000 $
#64
b101011 #
b101011 %
b101011 (
b101011 +
b101011 .
#66
b111 !
b111 &
1,
b110 *
b10101001 #
b10101001 %
b10101001 (
b10101001 +
b10101001 .
b110000 "
b110000 $
#68
b1101001 #
b1101001 %
b1101001 (
b1101001 +
b1101001 .
#69
b111 *
b111000 "
b111000 $
#70
b11001101 #
b11001101 %
b11001101 (
b11001101 +
b11001101 .
#72
0)
b100 !
b100 &
0,
b1 -
b10100 #
b10100 %
b10100 (
b10100 +
b10100 .
b1111000 "
b1111000 $
#74
b110 !
b110 &
1,
b10010100 #
b10010100 %
b10010100 (
b10010100 +
b10010100 .
#75
b100 '
b1111100 "
b1111100 $
#76
b100 !
b100 &
0,
b1010100 #
b1010100 %
b1010100 (
b1010100 +
b1010100 .
#77
b101 !
b101 &
1)
b1110110 #
b1110110 %
b1110110 (
b1110110 +
b1110110 .
#78
b111 !
b111 &
1,
b11 -
b11110110 #
b11110110 %
b11110110 (
b11110110 +
b11110110 .
b11111100 "
b11111100 $
#80
0,
b1 !
b1 &
0/
b100010 #
b100010 %
b100010 (
b100010 +
b100010 .
#81
b110 '
b101010 #
b101010 %
b101010 (
b101010 +
b101010 .
b11111110 "
b11111110 $
#82
b11 !
b11 &
1,
b10101010 #
b10101010 %
b10101010 (
b10101010 +
b10101010 .
#84
b1 !
b1 &
0,
b101 *
b111 -
b1001011 #
b1001011 %
b1001011 (
b1001011 +
b1001011 .
b111101110 "
b111101110 $
#86
b101 !
b101 &
1/
b11001011 #
b11001011 %
b11001011 (
b11001011 +
b11001011 .
#88
1,
b11 !
b11 &
0/
b1 *
b11001 #
b11001 %
b11001 (
b11001 +
b11001 .
b111001110 "
b111001110 $
#90
b111 !
b111 &
1/
b111 '
b10010101 #
b10010101 %
b10010101 (
b10010101 +
b10010101 .
b111001111 "
b111001111 $
#91
b10110101 #
b10110101 %
b10110101 (
b10110101 +
b10110101 .
#92
0)
b10 !
b10 &
0/
b0 *
b1110101 #
b1110101 %
b1110101 (
b1110101 +
b1110101 .
b111000111 "
b111000111 $
#94
1)
b111 !
b111 &
1/
b11110101 #
b11110101 %
b11110101 (
b11110101 +
b11110101 .
#96
0)
0,
b0 !
b0 &
0/
b110 -
b100100 #
b100100 %
b100100 (
b100100 +
b100100 .
b110000111 "
b110000111 $
#98
b1 !
b1 &
1)
b10000100 #
b10000100 %
b10000100 (
b10000100 +
b10000100 .
#99
b101 !
b101 &
1/
b10001110 #
b10001110 %
b10001110 (
b10001110 +
b10001110 .
#100
b11 '
b1001010 #
b1001010 %
b1001010 (
b1001010 +
b1001010 .
b110000011 "
b110000011 $
#102
b11001010 #
b11001010 %
b11001010 (
b11001010 +
b11001010 .
#104
b100 !
b100 &
0)
b100 -
b11010 #
b11010 %
b11010 (
b11010 +
b11010 .
b100000011 "
b100000011 $
#105
b10 *
b111010 #
b111010 %
b111010 (
b111010 +
b111010 .
b100010011 "
b100010011 $
#106
b10111010 #
b10111010 %
b10111010 (
b10111010 +
b10111010 .
#108
b101 !
b101 &
1)
b1 '
b1110011 #
b1110011 %
b1110011 (
b1110011 +
b1110011 .
b100010001 "
b100010001 $
#110
b1 !
b1 &
0/
b110 *
b11110101 #
b11110101 %
b11110101 (
b11110101 +
b11110101 .
b100110001 "
b100110001 $
#112
0)
b100 !
b100 &
1/
b0 -
b101 #
b101 %
b101 (
b101 +
b101 .
b110001 "
b110001 $
#114
b10000101 #
b10000101 %
b10000101 (
b10000101 +
b10000101 .
#115
b111 *
b111001 "
b111001 $
#116
b1000101 #
b1000101 %
b1000101 (
b1000101 +
b1000101 .
#117
b1001101 #
b1001101 %
b1001101 (
b1001101 +
b1001101 .
#118
b110 !
b110 &
1,
b11001101 #
b11001101 %
b11001101 (
b11001101 +
b11001101 .
#119
b11101101 #
b11101101 %
b11101101 (
b11101101 +
b11101101 .
#120
b100 !
b100 &
0,
b1 -
b0 '
b111000 #
b111000 %
b111000 (
b111000 +
b111000 .
b1111000 "
b1111000 $
#121
b111010 #
b111010 %
b111010 (
b111010 +
b111010 .
#122
b110 !
b110 &
1,
b10111010 #
b10111010 %
b10111010 (
b10111010 +
b10111010 .
#124
b100 !
b100 &
0,
b1111010 #
b1111010 %
b1111010 (
b1111010 +
b1111010 .
#125
b100 '
b1111100 "
b1111100 $
#126
b101 !
b101 &
1)
b101 *
b11010010 #
b11010010 %
b11010010 (
b11010010 +
b11010010 .
b1101100 "
b1101100 $
#128
b1 !
b1 &
0/
b10 #
b10 %
b10 (
b10 +
b10 .
#130
b11 -
b10000110 #
b10000110 %
b10000110 (
b10000110 +
b10000110 .
b11101100 "
b11101100 $
#132
0)
b100 !
b100 &
1/
b1 *
b1000101 #
b1000101 %
b1000101 (
b1000101 +
b1000101 .
b11001100 "
b11001100 $
#133
b1100101 #
b1100101 %
b1100101 (
b1100101 +
b1100101 .
#134
b11100101 #
b11100101 %
b11100101 (
b11100101 +
b11100101 .
#135
b101 !
b101 &
1)
b110 '
b11101101 #
b11101101 %
b11101101 (
b11101101 +
b11101101 .
b11001110 "
b11001110 $
#136
1,
b11 !
b11 &
0/
b111101 #
b111101 %
b111101 (
b111101 +
b111101 .
#138
b0 *
b10111101 #
b10111101 %
b10111101 (
b10111101 +
b10111101 .
b11000110 "
b11000110 $
#140
b111 -
b1011001 #
b1011001 %
b1011001 (
b1011001 +
b1011001 .
b111000110 "
b111000110 $
#142
b111 !
b111 &
1/
b11011001 #
b11011001 %
b11011001 (
b11011001 +
b11011001 .
#143
b11011011 #
b11011011 %
b11011011 (
b11011011 +
b11011011 .
#144
0)
0,
b0 !
b0 &
0/
b110 -
b10 #
b10 %
b10 (
b10 +
b10 .
b110000110 "
b110000110 $
#146
b10000010 #
b10000010 %
b10000010 (
b10000010 +
b10000010 .
#147
b10 *
b10100010 #
b10100010 %
b10100010 (
b10100010 +
b10100010 .
b110010110 "
b110010110 $
#148
b1100010 #
b1100010 %
b1100010 (
b1100010 +
b1100010 .
#150
1)
b11 !
b11 &
1,
b11 '
b11100110 #
b11100110 %
b11100110 (
b11100110 +
b11100110 .
b110010011 "
b110010011 $
#152
b10 !
b10 &
0)
b110110 #
b110110 %
b110110 (
b110110 +
b110110 .
#153
b110 !
b110 &
1/
b111110 #
b111110 %
b111110 (
b111110 +
b111110 .
#154
b110 *
b10011100 #
b10011100 %
b10011100 (
b10011100 +
b10011100 .
b110110011 "
b110110011 $
#156
1)
b11 !
b11 &
0/
b100 -
b1011101 #
b1011101 %
b1011101 (
b1011101 +
b1011101 .
b100110011 "
b100110011 $
#158
b11011101 #
b11011101 %
b11011101 (
b11011101 +
b11011101 .
#160
b10 !
b10 &
0)
b1001 #
b1001 %
b1001 (
b1001 +
b1001 .
#161
b0 !
b0 &
0,
b111 *
b101001 #
b101001 %
b101001 (
b101001 +
b101001 .
b100111011 "
b100111011 $
#162
b10 !
b10 &
1,
b1 '
b10100001 #
b10100001 %
b10100001 (
b10100001 +
b10100001 .
b100111001 "
b100111001 $
#164
b0 !
b0 &
0,
b1100001 #
b1100001 %
b1100001 (
b1100001 +
b1100001 .
#165
b100 !
b100 &
1/
b1100011 #
b1100011 %
b1100011 (
b1100011 +
b1100011 .
#166
b110 !
b110 &
1,
b11100011 #
b11100011 %
b11100011 (
b11100011 +
b11100011 .
#168
1)
b101 !
b101 &
0,
b101 *
b1 -
b10010 #
b10010 %
b10010 (
b10010 +
b10010 .
b1101001 "
b1101001 $
#170
b10010110 #
b10010110 %
b10010110 (
b10010110 +
b10010110 .
#171
b10011110 #
b10011110 %
b10011110 (
b10011110 +
b10011110 .
#172
b1011110 #
b1011110 %
b1011110 (
b1011110 +
b1011110 .
#174
b11011110 #
b11011110 %
b11011110 (
b11011110 +
b11011110 .
#175
b111 !
b111 &
1,
b101 '
b11111110 #
b11111110 %
b11111110 (
b11111110 +
b11111110 .
b1101101 "
b1101101 $
#176
0,
b1 !
b1 &
0/
b1 *
b101100 #
b101100 %
b101100 (
b101100 +
b101100 .
b1001101 "
b1001101 $
#178
b10101100 #
b10101100 %
b10101100 (
b10101100 +
b10101100 .
#180
b0 !
b0 &
0)
b100 '
b1100001 #
b1100001 %
b1100001 (
b1100001 +
b1100001 .
b1001100 "
b1001100 $
#182
b100 !
b100 &
1/
b11 -
b11000001 #
b11000001 %
b11000001 (
b11000001 +
b11000001 .
b11001100 "
b11001100 $
#184
1,
b10 !
b10 &
0/
b0 *
b10001 #
b10001 %
b10001 (
b10001 +
b10001 .
b11000100 "
b11000100 $
#186
b10010001 #
b10010001 %
b10010001 (
b10010001 +
b10010001 .
#187
b11 !
b11 &
1)
b10010011 #
b10010011 %
b10010011 (
b10010011 +
b10010011 .
#188
b111 !
b111 &
1/
b1010011 #
b1010011 %
b1010011 (
b1010011 +
b1010011 .
#189
b101 !
b101 &
0,
b10 *
b110 '
b1111011 #
b1111011 %
b1111011 (
b1111011 +
b1111011 .
b11010110 "
b11010110 $
#190
b111 !
b111 &
1,
b11111111 #
b11111111 %
b11111111 (
b11111111 +
b11111111 .
#192
b10 -
b101110 #
b101110 %
b101110 (
b101110 +
b101110 .
b10010110 "
b10010110 $
#194
b10101110 #
b10101110 %
b10101110 (
b10101110 +
b10101110 .
#196
b110 -
b1001110 #
b1001110 %
b1001110 (
b1001110 +
b1001110 .
b110010110 "
b110010110 $
#198
0)
0,
b0 !
b0 &
0/
b110 *
b11000100 #
b11000100 %
b11000100 (
b11000100 +
b11000100 .
b110110110 "
b110110110 $
#200
b10 '
b10000 #
b10000 %
b10000 (
b10000 +
b10000 .
b110110010 "
b110110010 $
