basic_modules/multiplexer_8_to_1/multiplexer_8_to_1_test.vcd
$date
	Mon May 23 04:22:45 2022
$end
$version
	Icarus Verilog
$end
$timescale
	1ns
$end
$scope module multiplexer_8_to_1_test $end
$var wire 1 ! out $end
$var reg 1 " a $end
$var reg 1 # b $end
$var reg 1 $ c $end
$var reg 8 % d [7:0] $end
$scope module dd0 $end
$var wire 1 " a $end
$var wire 1 # b $end
$var wire 1 $ c $end
$var wire 8 & d [7:0] $end
$var reg 1 ! out $end
$upscope $end
$upscope $end
$enddefinitions $end
#0
$dumpvars
b0 &
b0 %
0$
0#
0"
0!
$end
#2
b10000000 %
b10000000 &
#4
b1000000 %
b1000000 &
#6
b11000000 %
b11000000 &
#7
b11100000 %
b11100000 &
#8
b110000 %
b110000 &
#9
b111000 %
b111000 &
#10
b10111100 %
b10111100 &
#11
b10111110 %
b10111110 &
#12
1!
b1111111 %
b1111111 &
#14
b11011111 %
b11011111 &
#16
b1111 %
b1111 &
#18
b10000111 %
b10000111 &
#20
b1000011 %
b1000011 &
#21
b1100011 %
b1100011 &
#22
b11100001 %
b11100001 &
#24
b110000 %
b110000 &
1$
#26
b10110000 %
b10110000 &
#27
b10111000 %
b10111000 &
#28
b1011000 %
b1011000 &
#30
0!
b11011100 %
b11011100 &
1"
#32
b1100 %
b1100 &
#33
b1110 %
b1110 &
#34
b10001110 %
b10001110 &
#35
1!
b10101110 %
b10101110 &
#36
b1100111 %
b1100111 &
#37
1#
#38
b11100111 %
b11100111 &
#40
0!
b110011 %
b110011 &
#42
1!
b10010011 %
b10010011 &
#44
0!
b1010001 %
b1010001 &
#45
b1011001 %
b1011001 &
#46
1!
b11011001 %
b11011001 &
#48
b1000 %
b1000 &
0$
#49
b101000 %
b101000 &
#50
b10101100 %
b10101100 &
#52
b1101100 %
b1101100 &
#54
0!
b11100100 %
b11100100 &
#55
b11100110 %
b11100110 &
#56
b10110 %
b10110 &
#58
b10010110 %
b10010110 &
#60
b1010011 %
b1010011 &
0"
#62
b11010011 %
b11010011 &
#63
b11111011 %
b11111011 &
#64
b101011 %
b101011 &
#66
b10101001 %
b10101001 &
#68
b1101001 %
b1101001 &
#70
1!
b11001101 %
b11001101 &
#72
0!
b10100 %
b10100 &
1$
#74
1!
b10010100 %
b10010100 &
0#
#76
b1010100 %
b1010100 &
#77
b1110110 %
b1110110 &
#78
b11110110 %
b11110110 &
#80
0!
b100010 %
b100010 &
#81
b101010 %
b101010 &
#82
b10101010 %
b10101010 &
#84
b1001011 %
b1001011 &
#86
b11001011 %
b11001011 &
#88
1!
b11001 %
b11001 &
#90
0!
b10010101 %
b10010101 &
1"
#91
1!
b10110101 %
b10110101 &
#92
b1110101 %
b1110101 &
#94
b11110101 %
b11110101 &
#96
0!
b100100 %
b100100 &
0$
#98
b10000100 %
b10000100 &
#99
1!
b10001110 %
b10001110 &
#100
b1001010 %
b1001010 &
#102
b11001010 %
b11001010 &
#104
b11010 %
b11010 &
#105
b111010 %
b111010 &
#106
b10111010 %
b10111010 &
#108
b1110011 %
b1110011 &
#110
0!
b11110101 %
b11110101 &
#111
1#
#112
b101 %
b101 &
#114
b10000101 %
b10000101 &
#116
b1000101 %
b1000101 &
#117
1!
b1001101 %
b1001101 &
#118
b11001101 %
b11001101 &
#119
b11101101 %
b11101101 &
#120
0!
b111000 %
b111000 &
1$
0"
#121
b111010 %
b111010 &
#122
b10111010 %
b10111010 &
#124
1!
b1111010 %
b1111010 &
#126
b11010010 %
b11010010 &
#128
0!
b10 %
b10 &
#130
b10000110 %
b10000110 &
#132
1!
b1000101 %
b1000101 &
#133
b1100101 %
b1100101 &
#134
b11100101 %
b11100101 &
#135
b11101101 %
b11101101 &
#136
0!
b111101 %
b111101 &
#138
b10111101 %
b10111101 &
#140
1!
b1011001 %
b1011001 &
#142
b11011001 %
b11011001 &
#143
b11011011 %
b11011011 &
#144
0!
b10 %
b10 &
0$
#146
b10000010 %
b10000010 &
#147
b10100010 %
b10100010 &
#148
b1100010 %
b1100010 &
0#
#150
1!
b11100110 %
b11100110 &
1"
#152
b110110 %
b110110 &
#153
b111110 %
b111110 &
#154
0!
b10011100 %
b10011100 &
#156
b1011101 %
b1011101 &
#158
b11011101 %
b11011101 &
#160
b1001 %
b1001 &
#161
b101001 %
b101001 &
#162
b10100001 %
b10100001 &
#164
b1100001 %
b1100001 &
#165
1!
b1100011 %
b1100011 &
#166
b11100011 %
b11100011 &
#168
0!
b10010 %
b10010 &
1$
#170
b10010110 %
b10010110 &
#171
b10011110 %
b10011110 &
#172
b1011110 %
b1011110 &
#174
b11011110 %
b11011110 &
#175
1!
b11111110 %
b11111110 &
#176
b101100 %
b101100 &
#178
b10101100 %
b10101100 &
#180
0!
b1100001 %
b1100001 &
0"
#182
b11000001 %
b11000001 &
#184
1!
b10001 %
b10001 &
#185
1#
#186
0!
b10010001 %
b10010001 &
#187
b10010011 %
b10010011 &
#188
1!
b1010011 %
b1010011 &
#189
b1111011 %
b1111011 &
#190
b11111111 %
b11111111 &
#192
b101110 %
b101110 &
0$
#194
b10101110 %
b10101110 &
#196
b1001110 %
b1001110 &
#198
b11000100 %
b11000100 &
#200
0!
b10000 %
b10000 &
